{"vertices":[
  {"labelV":"location","name":"Kyiv","id":"#1:1", "lat":50.401699, "lon":30.2525099},
  {"labelV":"location","name":"Zaporizhzhya","id":"#1:2", "lat":47.8556724, "lon":35.03527, "start":"2016-05-25"},
  {"labelV":"location","name":"Lviv","id":"#1:3", "lat":49.8326679, "lon":23.9421958},
  {"labelV":"location","name":"Dnepr","id":"#1:4", "lat":48.4622135, "lon":34.860273},
  {"labelV":"location","name":"Vinnitsa","id":"#1:5", "lat":49.2347946, "lon":28.3995941},
  {"labelV":"location","name":"Zhitomir","id":"#1:6", "lat":50.2678654, "lon":28.6036778},

  {"labelV":"person","name":"Vovk","id":"#2:1"},
  {"labelV":"person","name":"Taras","id":"#2:2"},
  {"labelV":"person","name":"Volodimir","id":"#2:3"},
  {"labelV":"person","name":"Slava","id":"#2:4", "start":"2016-05-25"},
  {"labelV":"person","name":"Yana","id":"#2:6", "start":"2016-08-15"},
  {"labelV":"person","name":"Orest","id":"#2:7", "start":"2016-08-10"}
],"edges":[
  {"id":"#100:1","to":"#1:2","from":"#1:4", "weight":"4"},
  {"id":"#100:2","to":"#1:1","from":"#1:4", "weight":"9"},
  {"id":"#100:3","to":"#1:5","from":"#1:4", "weight":"1"},
  {"id":"#100:4","to":"#1:6","from":"#1:1", "weight":"5"},
  {"id":"#100:5","to":"#1:6","from":"#1:3", "weight":"9"},
  {"id":"#100:6","to":"#1:5","from":"#1:3", "weight":"1"},

  {"id":"#200:1","to":"#1:3","from":"#2:2", "weight":"7"},
  {"id":"#200:2","to":"#1:3","from":"#2:3"},
  {"id":"#200:3","to":"#1:5","from":"#2:1"},
  {"id":"#200:4","to":"#1:2","from":"#2:4"},

  {"id":"#200:5","to":"#2:2","from":"#2:6"},
  {"id":"#200:6","to":"#2:2","from":"#2:7"},
  {"id":"#200:7","to":"#2:6","from":"#2:7", "start":"2016-09-01"}

]}