[[{
		"contentType": "HEADING",
		"contentData": {
			"question": null,
			"answer": null,
			"questionId": null,
			"answerId": null,
			"text": "Application for cyber insurance",
			"answerType": null,
			"possibleAnswer": null,
			"riskScore": null,
			"isoCode": null
		},
		"contentDataTable": null,
		"isQuestion": false
	}],
	[{
		"contentType": "PARAGRAPH",
		"contentData": {
			"question": null,
			"answer": null,
			"questionId": null,
			"answerId": null,
			"text": "Profile:",
			"answerType": null,
			"possibleAnswer": null,
			"riskScore": null,
			"isoCode": null
		},
		"contentDataTable": null,
		"isQuestion": false
	}, {
		"contentType": null,
		"contentData": null,
		"contentDataTable": null,
		"isQuestion": false
	}], [{
		"contentType": "PARAGRAPH",
		"contentData": {
			"question": null,
			"answer": null,
			"questionId": null,
			"answerId": null,
			"text": "Gross revenue: - Please refer to attachment 4 for dissection of revenues across geographies ",
			"answerType": null,
			"possibleAnswer": null,
			"riskScore": null,
			"isoCode": null
		},
		"contentDataTable": null,
		"isQuestion": false
	}, {
		"contentType": null,
		"contentData": null,
		"contentDataTable": null,
		"isQuestion": false
	}, {
		"contentType": "PARAGRAPH",
		"contentData": {
			"question": null,
			"answer": null,
			"questionId": null,
			"answerId": null,
			"text": "Corporate changes:",
			"answerType": null,
			"possibleAnswer": null,
			"riskScore": null,
			"isoCode": null
		},
		"contentDataTable": null,
		"isQuestion": false
	}, {
		"contentType": null,
		"contentData": null,
		"contentDataTable": null,
		"isQuestion": false
	}],[ {
		"contentType": "PARAGRAPH",
		"contentData": {
			"question": null,
			"answer": null,
			"questionId": null,
			"answerId": null,
			"text": "Insurance requirements:",
			"answerType": null,
			"possibleAnswer": null,
			"riskScore": null,
			"isoCode": null
		},
		"contentDataTable": null,
		"isQuestion": false
	}, {
		"contentType": "SUB PARAGRAPH",
		"contentData": {
			"question": null,
			"answer": null,
			"questionId": null,
			"answerId": null,
			"text": "Please specify all indemnity limit options for which you would like to receive quotations:",
			"answerType": null,
			"possibleAnswer": null,
			"riskScore": null,
			"isoCode": null
		},
		"contentDataTable": null,
		"isQuestion": false
	}, {
		"contentType": null,
		"contentData": null,
		"contentDataTable": null,
		"isQuestion": false
	}, {
		"contentType": "SUB HEADING",
		"contentData": {
			"question": null,
			"answer": null,
			"questionId": null,
			"answerId": null,
			"text": "Personal Data:",
			"answerType": null,
			"possibleAnswer": null,
			"riskScore": null,
			"isoCode": null
		},
		"contentDataTable": null,
		"isQuestion": false
	}, {
		"contentType": "SUB PARAGRAPH",
		"contentData": {
			"question": null,
			"answer": null,
			"questionId": null,
			"answerId": null,
			"text": "Please provide a breakdown of the approximate total number of stored and transmitted/processed records in accordance with the following categories (we understand that for certain data sets, individual records are likely to fall within more than one of these categories. Please count in all categories that apply).",
			"answerType": null,
			"possibleAnswer": null,
			"riskScore": null,
			"isoCode": null
		},
		"contentDataTable": null,
		"isQuestion": false
	}, {
		"contentType": null,
		"contentData": null,
		"contentDataTable": null,
		"isQuestion": false
	}, {
		"contentType": "SUB PARAGRAPH",
		"contentData": {
			"question": null,
			"answer": null,
			"questionId": null,
			"answerId": null,
			"text": "Please state the total number of personal information records stored or transmitted / processed by you (noting that this number may be lower than the aggregate of all items stated above as a single record may fall within multiple categories).",
			"answerType": null,
			"possibleAnswer": null,
			"riskScore": null,
			"isoCode": null
		},
		"contentDataTable": null,
		"isQuestion": false
	}, {
		"contentType": null,
		"contentData": null,
		"contentDataTable": null,
		"isQuestion": false
	}, {
		"contentType": "SUB PARAGRAPH",
		"contentData": {
			"question": "Is personal data held in more than one database?",
			"answer": "no",
			"questionId": 641,
			"answerId": 196,
			"text": null,
			"answerType": "CHECKBOX",
			"possibleAnswer": "yes,no",
			"riskScore": null,
			"isoCode": null
		},
		"contentDataTable": null,
		"isQuestion": true
	}, {
		"contentType": "PARAGRAPH",
		"contentData": {
			"question": null,
			"answer": null,
			"questionId": null,
			"answerId": null,
			"text": "If yes then please specify:",
			"answerType": null,
			"possibleAnswer": null,
			"riskScore": null,
			"isoCode": null
		},
		"contentDataTable": null,
		"isQuestion": false
	}, {
		"contentType": null,
		"contentData": null,
		"contentDataTable": null,
		"isQuestion": false
	}, {
		"contentType": "SUB PARAGRAPH",
		"contentData": {
			"question": "Is personal or other confidential data held on or accessible by web servers?",
			"answer": "yes",
			"questionId": 643,
			"answerId": 197,
			"text": null,
			"answerType": "CHECKBOX",
			"possibleAnswer": "yes,no",
			"riskScore": null,
			"isoCode": null
		},
		"contentDataTable": null,
		"isQuestion": true
	}, {
		"contentType": "PARAGRAPH",
		"contentData": {
			"question": null,
			"answer": null,
			"questionId": null,
			"answerId": null,
			"text": "If yes then please provide details on what data is stored and security measures taken i.e. firewalls for inbound and outbound traffic etc:",
			"answerType": null,
			"possibleAnswer": null,
			"riskScore": null,
			"isoCode": null
		},
		"contentDataTable": null,
		"isQuestion": false
	}, {
		"contentType": null,
		"contentData": null,
		"contentDataTable": null,
		"isQuestion": false
	}, {
		"contentType": "SUB PARAGRAPH",
		"contentData": {
			"question": "Has the proposer designated a Chief Privacy Officer?",
			"answer": "no",
			"questionId": 645,
			"answerId": 198,
			"text": null,
			"answerType": "CHECKBOX",
			"possibleAnswer": "yes,no",
			"riskScore": null,
			"isoCode": null
		},
		"contentDataTable": null,
		"isQuestion": true
	}, {
		"contentType": "SUB PARAGRAPH",
		"contentData": {
			"question": "Do you have a corporate wide privacy policy?",
			"answer": "no",
			"questionId": 646,
			"answerId": 199,
			"text": null,
			"answerType": "CHECKBOX",
			"possibleAnswer": "yes,no",
			"riskScore": null,
			"isoCode": null
		},
		"contentDataTable": null,
		"isQuestion": true
	}, {
		"contentType": "SUB PARAGRAPH",
		"contentData": {
			"question": "Do you have an incident response plan specifically governing your response to the unauthorised release of personal information?",
			"answer": "no",
			"questionId": 647,
			"answerId": 200,
			"text": null,
			"answerType": "CHECKBOX",
			"possibleAnswer": "yes,no",
			"riskScore": null,
			"isoCode": null
		},
		"contentDataTable": null,
		"isQuestion": true
	}, {
		"contentType": "SUB PARAGRAPH",
		"contentData": {
			"question": "Do you ever share personal data with third party organisations?",
			"answer": "no",
			"questionId": 648,
			"answerId": 201,
			"text": null,
			"answerType": "CHECKBOX",
			"possibleAnswer": "yes,no",
			"riskScore": null,
			"isoCode": null
		},
		"contentDataTable": null,
		"isQuestion": true
	}, {
		"contentType": "PARAGRAPH",
		"contentData": {
			"question": null,
			"answer": null,
			"questionId": null,
			"answerId": null,
			"text": "If yes, is this clearly stated in the privacy policy applicable to these data subjects: YES?/NO?",
			"answerType": null,
			"possibleAnswer": null,
			"riskScore": null,
			"isoCode": null
		},
		"contentDataTable": null,
		"isQuestion": false
	}, {
		"contentType": "SUB PARAGRAPH",
		"contentData": {
			"question": null,
			"answer": null,
			"questionId": null,
			"answerId": null,
			"text": "Please list all third parties to whom you sell personal information or hare agreed to share personal information: We do not sell personal information to third parties",
			"answerType": null,
			"possibleAnswer": null,
			"riskScore": null,
			"isoCode": null
		},
		"contentDataTable": null,
		"isQuestion": false
	}, {
		"contentType": null,
		"contentData": null,
		"contentDataTable": null,
		"isQuestion": false
	}, {
		"contentType": "PARAGRAPH",
		"contentData": {
			"question": null,
			"answer": null,
			"questionId": null,
			"answerId": null,
			"text": "If there is insufficient space, then please list in a separate document and attach to this application.",
			"answerType": null,
			"possibleAnswer": null,
			"riskScore": null,
			"isoCode": null
		},
		"contentDataTable": null,
		"isQuestion": false
	}, {
		"contentType": "SUB PARAGRAPH",
		"contentData": {
			"question": "Are all third party organisations with which you share personal data, required to indemnify you under contract for their unauthorised disclosure of such personal data?",
			"answer": "no",
			"questionId": 652,
			"answerId": 202,
			"text": null,
			"answerType": "CHECKBOX",
			"possibleAnswer": "yes,no",
			"riskScore": null,
			"isoCode": null
		},
		"contentDataTable": null,
		"isQuestion": true
	}, {
		"contentType": "PARAGRAPH",
		"contentData": {
			"question": null,
			"answer": null,
			"questionId": null,
			"answerId": null,
			"text": "If no then please specify what contractual remedies exist:",
			"answerType": null,
			"possibleAnswer": null,
			"riskScore": null,
			"isoCode": null
		},
		"contentDataTable": null,
		"isQuestion": false
	}, {
		"contentType": null,
		"contentData": null,
		"contentDataTable": null,
		"isQuestion": false
	}], [{
		"contentType": "SUB HEADING",
		"contentData": {
			"question": null,
			"answer": null,
			"questionId": null,
			"answerId": null,
			"text": "Third Party Dependencies:",
			"answerType": null,
			"possibleAnswer": null,
			"riskScore": null,
			"isoCode": null
		},
		"contentDataTable": null,
		"isQuestion": false
	}, {
		"contentType": "SUB PARAGRAPH",
		"contentData": {
			"question": null,
			"answer": null,
			"questionId": null,
			"answerId": null,
			"text": "Please provide details of IT functions that have been outsourced to a third party (this may include data centre services, application hosting, data storage, network management, managed security, offsite backup and storage, payment processing). If there is insufficient space, then please list in a separate document and attach to this application.",
			"answerType": null,
			"possibleAnswer": null,
			"riskScore": null,
			"isoCode": null
		},
		"contentDataTable": null,
		"isQuestion": false
	}, {
		"contentType": null,
		"contentData": null,
		"contentDataTable": null,
		"isQuestion": false
	}, {
		"contentType": "PARAGRAPH",
		"contentData": {
			"question": null,
			"answer": null,
			"questionId": null,
			"answerId": null,
			"text": "See attachement1 and 2",
			"answerType": null,
			"possibleAnswer": null,
			"riskScore": null,
			"isoCode": null
		},
		"contentDataTable": null,
		"isQuestion": false
	}, {
		"contentType": "SUB PARAGRAPH",
		"contentData": {
			"question": null,
			"answer": null,
			"questionId": null,
			"answerId": null,
			"text": "Please provide details of business process functions that have been outsourced to a third party (this may include HR/payroll, order processing, contact centre services, finance and accounting). If there is insufficient space, then please list in a separate document and attach to this application.",
			"answerType": null,
			"possibleAnswer": null,
			"riskScore": null,
			"isoCode": null
		},
		"contentDataTable": null,
		"isQuestion": false
	}, {
		"contentType": null,
		"contentData": null,
		"contentDataTable": null,
		"isQuestion": false
	}, {
		"contentType": "SUB PARAGRAPH",
		"contentData": {
			"question": "Do you verify that outsource providers and organisations with which you share personal information are able to meet a satisfactory standard of security?",
			"answer": "yes",
			"questionId": 658,
			"answerId": 203,
			"text": null,
			"answerType": "CHECKBOX",
			"possibleAnswer": "yes,no",
			"riskScore": null,
			"isoCode": null
		},
		"contentDataTable": null,
		"isQuestion": true
	}, {
		"contentType": "SUB PARAGRAPH",
		"contentData": {
			"question": null,
			"answer": null,
			"questionId": null,
			"answerId": null,
			"text": "Please state the method of verification:",
			"answerType": null,
			"possibleAnswer": null,
			"riskScore": null,
			"isoCode": null
		},
		"contentDataTable": null,
		"isQuestion": false
	}, {
		"contentType": null,
		"contentData": null,
		"contentDataTable": null,
		"isQuestion": false
	}],[ {
		"contentType": "SUB HEADING",
		"contentData": {
			"question": null,
			"answer": null,
			"questionId": null,
			"answerId": null,
			"text": "Continuity & Backup:",
			"answerType": null,
			"possibleAnswer": null,
			"riskScore": null,
			"isoCode": null
		},
		"contentDataTable": null,
		"isQuestion": false
	}, {
		"contentType": "SUB PARAGRAPH",
		"contentData": {
			"question": null,
			"answer": null,
			"questionId": null,
			"answerId": null,
			"text": "Does the organisation have: ",
			"answerType": null,
			"possibleAnswer": null,
			"riskScore": null,
			"isoCode": null
		},
		"contentDataTable": null,
		"isQuestion": false
	}, {
		"contentType": "PARAGRAPH",
		"contentData": {
			"question": null,
			"answer": null,
			"questionId": null,
			"answerId": null,
			"text": "a disaster recovery plan YES?/NO?     ",
			"answerType": null,
			"possibleAnswer": null,
			"riskScore": null,
			"isoCode": null
		},
		"contentDataTable": null,
		"isQuestion": false
	}, {
		"contentType": "PARAGRAPH",
		"contentData": {
			"question": null,
			"answer": null,
			"questionId": null,
			"answerId": null,
			"text": " ",
			"answerType": null,
			"possibleAnswer": null,
			"riskScore": null,
			"isoCode": null
		},
		"contentDataTable": null,
		"isQuestion": false
	}, {
		"contentType": "PARAGRAPH",
		"contentData": {
			"question": null,
			"answer": null,
			"questionId": null,
			"answerId": null,
			"text": "a business continuity plan YES?/NO?",
			"answerType": null,
			"possibleAnswer": null,
			"riskScore": null,
			"isoCode": null
		},
		"contentDataTable": null,
		"isQuestion": false
	}, {
		"contentType": "PARAGRAPH",
		"contentData": {
			"question": null,
			"answer": null,
			"questionId": null,
			"answerId": null,
			"text": "Please include copies – Refer attachments 7, 8 and 9.  Note that these documents have been developed in 2017 but there is a plan to test these in 2018.",
			"answerType": null,
			"possibleAnswer": null,
			"riskScore": null,
			"isoCode": null
		},
		"contentDataTable": null,
		"isQuestion": false
	}, {
		"contentType": "SUB PARAGRAPH",
		"contentData": {
			"question": "Have these plans been tested in the last 12 months?",
			"answer": "no",
			"questionId": 666,
			"answerId": 204,
			"text": null,
			"answerType": "CHECKBOX",
			"possibleAnswer": "yes,no",
			"riskScore": null,
			"isoCode": null
		},
		"contentDataTable": null,
		"isQuestion": true
	}, {
		"contentType": "SUB PARAGRAPH",
		"contentData": {
			"question": "Is all critical/sensitive data backed up on a daily basis?",
			"answer": "no",
			"questionId": 667,
			"answerId": 205,
			"text": null,
			"answerType": "CHECKBOX",
			"possibleAnswer": "yes,no",
			"riskScore": null,
			"isoCode": null
		},
		"contentDataTable": null,
		"isQuestion": true
	}, {
		"contentType": "SUB PARAGRAPH",
		"contentData": {
			"question": null,
			"answer": null,
			"questionId": null,
			"answerId": null,
			"text": "Please describe where data is backed up to and any exceptions that apply to routine daily back-up. ",
			"answerType": null,
			"possibleAnswer": null,
			"riskScore": null,
			"isoCode": null
		},
		"contentDataTable": null,
		"isQuestion": false
	}, {
		"contentType": null,
		"contentData": null,
		"contentDataTable": null,
		"isQuestion": false
	}, {
		"contentType": "SUB PARAGRAPH",
		"contentData": {
			"question": "Is all sensitive information stored on back-up tapes/cassettes/disks, etc. encrypted as a standard practice?",
			"answer": "no",
			"questionId": 669,
			"answerId": 206,
			"text": null,
			"answerType": "CHECKBOX",
			"possibleAnswer": "yes,no",
			"riskScore": null,
			"isoCode": null
		},
		"contentDataTable": null,
		"isQuestion": true
	}, {
		"contentType": "SUB PARAGRAPH",
		"contentData": {
			"question": "If you maintain your own back-up tapes/cassettes/disks, etc., are these stored in a physically secured location?",
			"answer": "no",
			"questionId": 670,
			"answerId": 207,
			"text": null,
			"answerType": "CHECKBOX",
			"possibleAnswer": "yes,no",
			"riskScore": null,
			"isoCode": null
		},
		"contentDataTable": null,
		"isQuestion": true
	}, {
		"contentType": "SUB PARAGRAPH",
		"contentData": {
			"question": "Do you have formalised data destruction procedures in place for data and documents no longer needed by your organisation?",
			"answer": "no",
			"questionId": 671,
			"answerId": 208,
			"text": null,
			"answerType": "CHECKBOX",
			"possibleAnswer": "yes,no",
			"riskScore": null,
			"isoCode": null
		},
		"contentDataTable": null,
		"isQuestion": true
	}], [{
		"contentType": "SUB HEADING",
		"contentData": {
			"question": null,
			"answer": null,
			"questionId": null,
			"answerId": null,
			"text": "Interruption loss:",
			"answerType": null,
			"possibleAnswer": null,
			"riskScore": null,
			"isoCode": null
		},
		"contentDataTable": null,
		"isQuestion": false
	}, {
		"contentType": "SUB PARAGRAPH",
		"contentData": {
			"question": null,
			"answer": null,
			"questionId": null,
			"answerId": null,
			"text": "Please describe the revenue trading pattern over a typical 24 hour period",
			"answerType": null,
			"possibleAnswer": null,
			"riskScore": null,
			"isoCode": null
		},
		"contentDataTable": null,
		"isQuestion": false
	}, {
		"contentType": null,
		"contentData": null,
		"contentDataTable": null,
		"isQuestion": false
	}, {
		"contentType": "SUB PARAGRAPH",
		"contentData": {
			"question": null,
			"answer": null,
			"questionId": null,
			"answerId": null,
			"text": "Please describe the revenue trading pattern over a typical 12 month period",
			"answerType": null,
			"possibleAnswer": null,
			"riskScore": null,
			"isoCode": null
		},
		"contentDataTable": null,
		"isQuestion": false
	}, {
		"contentType": null,
		"contentData": null,
		"contentDataTable": null,
		"isQuestion": false
	}, {
		"contentType": "SUB PARAGRAPH",
		"contentData": {
			"question": null,
			"answer": null,
			"questionId": null,
			"answerId": null,
			"text": "Please describe the financial impact on your revenue that would arise from the unavailability of your computer network:",
			"answerType": null,
			"possibleAnswer": null,
			"riskScore": null,
			"isoCode": null
		},
		"contentDataTable": null,
		"isQuestion": false
	}, {
		"contentType": "PARAGRAPH",
		"contentData": {
			"question": null,
			"answer": null,
			"questionId": null,
			"answerId": null,
			"text": "for a maximum of 4 hours downtime ",
			"answerType": null,
			"possibleAnswer": null,
			"riskScore": null,
			"isoCode": null
		},
		"contentDataTable": null,
		"isQuestion": false
	}, {
		"contentType": null,
		"contentData": null,
		"contentDataTable": null,
		"isQuestion": false
	}, {
		"contentType": "PARAGRAPH",
		"contentData": {
			"question": null,
			"answer": null,
			"questionId": null,
			"answerId": null,
			"text": "\t",
			"answerType": null,
			"possibleAnswer": null,
			"riskScore": null,
			"isoCode": null
		},
		"contentDataTable": null,
		"isQuestion": false
	}, {
		"contentType": "PARAGRAPH",
		"contentData": {
			"question": null,
			"answer": null,
			"questionId": null,
			"answerId": null,
			"text": "for a maximum of 12 hours downtime",
			"answerType": null,
			"possibleAnswer": null,
			"riskScore": null,
			"isoCode": null
		},
		"contentDataTable": null,
		"isQuestion": false
	}, {
		"contentType": null,
		"contentData": null,
		"contentDataTable": null,
		"isQuestion": false
	}, {
		"contentType": "PARAGRAPH",
		"contentData": {
			"question": null,
			"answer": null,
			"questionId": null,
			"answerId": null,
			"text": "for a maximum of 24 hours downtime",
			"answerType": null,
			"possibleAnswer": null,
			"riskScore": null,
			"isoCode": null
		},
		"contentDataTable": null,
		"isQuestion": false
	}, {
		"contentType": null,
		"contentData": null,
		"contentDataTable": null,
		"isQuestion": false
	}, {
		"contentType": "PARAGRAPH",
		"contentData": {
			"question": null,
			"answer": null,
			"questionId": null,
			"answerId": null,
			"text": "\t",
			"answerType": null,
			"possibleAnswer": null,
			"riskScore": null,
			"isoCode": null
		},
		"contentDataTable": null,
		"isQuestion": false
	}, {
		"contentType": "SUB PARAGRAPH",
		"contentData": {
			"question": null,
			"answer": null,
			"questionId": null,
			"answerId": null,
			"text": "What percentage of your revenue is derived from customer-facing websites?  ",
			"answerType": null,
			"possibleAnswer": null,
			"riskScore": null,
			"isoCode": null
		},
		"contentDataTable": null,
		"isQuestion": false
	}, {
		"contentType": null,
		"contentData": null,
		"contentDataTable": null,
		"isQuestion": false
	}, {
		"contentType": "PARAGRAPH",
		"contentData": {
			"question": null,
			"answer": null,
			"questionId": null,
			"answerId": null,
			"text": "Regulatory & legal:",
			"answerType": null,
			"possibleAnswer": null,
			"riskScore": null,
			"isoCode": null
		},
		"contentDataTable": null,
		"isQuestion": false
	}, {
		"contentType": "SUB PARAGRAPH",
		"contentData": {
			"question": "Are you compliant with applicable statutory or regulatory standards concerning personal data stored or processed by you?",
			"answer": "no",
			"questionId": 683,
			"answerId": 209,
			"text": null,
			"answerType": "CHECKBOX",
			"possibleAnswer": "yes,no",
			"riskScore": null,
			"isoCode": null
		},
		"contentDataTable": null,
		"isQuestion": true
	}, {
		"contentType": "SUB PARAGRAPH",
		"contentData": {
			"question": null,
			"answer": null,
			"questionId": null,
			"answerId": null,
			"text": "Where applicable, please confirm your compliance with:",
			"answerType": null,
			"possibleAnswer": null,
			"riskScore": null,
			"isoCode": null
		},
		"contentDataTable": null,
		"isQuestion": false
	}, {
		"contentType": null,
		"contentData": null,
		"contentDataTable": null,
		"isQuestion": false
	}, {
		"contentType": "PARAGRAPH",
		"contentData": {
			"question": null,
			"answer": null,
			"questionId": null,
			"answerId": null,
			"text": "Please state any other applicable legislation that you must comply with regarding data protection",
			"answerType": null,
			"possibleAnswer": null,
			"riskScore": null,
			"isoCode": null
		},
		"contentDataTable": null,
		"isQuestion": false
	}, {
		"contentType": "SUB PARAGRAPH",
		"contentData": {
			"question": null,
			"answer": null,
			"questionId": null,
			"answerId": null,
			"text": "If the scope of PCI compliance does not include all applicable business areas, then please state the business areas that your compliance status does apply to and which business areas remain non compliant. Please also describe the status and estimated completion date of any PCI compliance plan for non compliant business areas",
			"answerType": null,
			"possibleAnswer": null,
			"riskScore": null,
			"isoCode": null
		},
		"contentDataTable": null,
		"isQuestion": false
	}, {
		"contentType": null,
		"contentData": null,
		"contentDataTable": null,
		"isQuestion": false
	}, {
		"contentType": "SUB PARAGRAPH",
		"contentData": {
			"question": null,
			"answer": null,
			"questionId": null,
			"answerId": null,
			"text": "How many credit or debit transactions do you process annually? Click here to enter text.",
			"answerType": null,
			"possibleAnswer": null,
			"riskScore": null,
			"isoCode": null
		},
		"contentDataTable": null,
		"isQuestion": false
	}, {
		"contentType": "SUB PARAGRAPH",
		"contentData": {
			"question": "Do you mask all but the last four digits of a card number when displaying or printing card holder data?",
			"answer": "no",
			"questionId": 688,
			"answerId": 210,
			"text": null,
			"answerType": "CHECKBOX",
			"possibleAnswer": "yes,no",
			"riskScore": null,
			"isoCode": null
		},
		"contentDataTable": null,
		"isQuestion": true
	}, {
		"contentType": "SUB PARAGRAPH",
		"contentData": {
			"question": "Do you encrypt all account information on your databases?",
			"answer": "no",
			"questionId": 689,
			"answerId": 211,
			"text": null,
			"answerType": "CHECKBOX",
			"possibleAnswer": "yes,no",
			"riskScore": null,
			"isoCode": null
		},
		"contentDataTable": null,
		"isQuestion": true
	}, {
		"contentType": "SUB PARAGRAPH",
		"contentData": {
			"question": "Do you ensure that card validation codes are not stored in any of your databases, log files or anywhere else within your network?",
			"answer": "no",
			"questionId": 690,
			"answerId": 212,
			"text": null,
			"answerType": "CHECKBOX",
			"possibleAnswer": "yes,no",
			"riskScore": null,
			"isoCode": null
		},
		"contentDataTable": null,
		"isQuestion": true
	}, {
		"contentType": "SUB PARAGRAPH",
		"contentData": {
			"question": "Have you implemented an identity theft prevention programme, i.e. FTC “Red Flags” Programme?",
			"answer": "no",
			"questionId": 691,
			"answerId": 213,
			"text": null,
			"answerType": "CHECKBOX",
			"possibleAnswer": "yes,no",
			"riskScore": null,
			"isoCode": null
		},
		"contentDataTable": null,
		"isQuestion": true
	}, {
		"contentType": "SUB PARAGRAPH",
		"contentData": {
			"question": "Has any third party audit of your privacy practices been undertaken in the last two years?",
			"answer": "no",
			"questionId": 692,
			"answerId": 214,
			"text": null,
			"answerType": "CHECKBOX",
			"possibleAnswer": "yes,no",
			"riskScore": null,
			"isoCode": null
		},
		"contentDataTable": null,
		"isQuestion": true
	}, {
		"contentType": "PARAGRAPH",
		"contentData": {
			"question": null,
			"answer": null,
			"questionId": null,
			"answerId": null,
			"text": "Security:",
			"answerType": null,
			"possibleAnswer": null,
			"riskScore": null,
			"isoCode": null
		},
		"contentDataTable": null,
		"isQuestion": false
	}, {
		"contentType": "SUB PARAGRAPH",
		"contentData": {
			"question": "Has the proposer designated a Chief Security Officer?",
			"answer": "no",
			"questionId": 694,
			"answerId": 215,
			"text": null,
			"answerType": "CHECKBOX",
			"possibleAnswer": "yes,no",
			"riskScore": null,
			"isoCode": null
		},
		"contentDataTable": null,
		"isQuestion": true
	}, {
		"contentType": "SUB PARAGRAPH",
		"contentData": {
			"question": "Do you track and monitor access to sensitive information on your network?",
			"answer": "no",
			"questionId": 695,
			"answerId": 216,
			"text": null,
			"answerType": "CHECKBOX",
			"possibleAnswer": "yes,no",
			"riskScore": null,
			"isoCode": null
		},
		"contentDataTable": null,
		"isQuestion": true
	}, {
		"contentType": "SUB PARAGRAPH",
		"contentData": {
			"question": null,
			"answer": null,
			"questionId": null,
			"answerId": null,
			"text": "Do you use anti-virus software that is updated/patched in accordance with the vendor’s recommendations?  ",
			"answerType": null,
			"possibleAnswer": null,
			"riskScore": null,
			"isoCode": null
		},
		"contentDataTable": null,
		"isQuestion": false
	}, {
		"contentType": null,
		"contentData": null,
		"contentDataTable": null,
		"isQuestion": false
	}, {
		"contentType": "SUB PARAGRAPH",
		"contentData": {
			"question": "Have you installed and do you maintain a firewall configuration to protect data?",
			"answer": "no",
			"questionId": 697,
			"answerId": 217,
			"text": null,
			"answerType": "CHECKBOX",
			"possibleAnswer": "yes,no",
			"riskScore": null,
			"isoCode": null
		},
		"contentDataTable": null,
		"isQuestion": true
	}, {
		"contentType": "SUB PARAGRAPH",
		"contentData": {
			"question": "Have you installed and do you maintain an intrusion detection system?",
			"answer": "no",
			"questionId": 698,
			"answerId": 218,
			"text": null,
			"answerType": "CHECKBOX",
			"possibleAnswer": "yes,no",
			"riskScore": null,
			"isoCode": null
		},
		"contentDataTable": null,
		"isQuestion": true
	}, {
		"contentType": "SUB PARAGRAPH",
		"contentData": {
			"question": "Do you have a defined process implemented to regularly patch your systems and applications?",
			"answer": "no",
			"questionId": 699,
			"answerId": 219,
			"text": null,
			"answerType": "CHECKBOX",
			"possibleAnswer": "yes,no",
			"riskScore": null,
			"isoCode": null
		},
		"contentDataTable": null,
		"isQuestion": true
	}, {
		"contentType": "SUB PARAGRAPH",
		"contentData": {
			"question": null,
			"answer": null,
			"questionId": null,
			"answerId": null,
			"text": "Is all sensitive and confidential information encrypted when: ",
			"answerType": null,
			"possibleAnswer": null,
			"riskScore": null,
			"isoCode": null
		},
		"contentDataTable": null,
		"isQuestion": false
	}, {
		"contentType": null,
		"contentData": null,
		"contentDataTable": null,
		"isQuestion": false
	}, {
		"contentType": "SUB PARAGRAPH",
		"contentData": {
			"question": null,
			"answer": null,
			"questionId": null,
			"answerId": null,
			"text": "Please identify any security controls used in addition to or as an alternative to encryption for the transmission or storage of sensitive and confidential information.",
			"answerType": null,
			"possibleAnswer": null,
			"riskScore": null,
			"isoCode": null
		},
		"contentDataTable": null,
		"isQuestion": false
	}, {
		"contentType": null,
		"contentData": null,
		"contentDataTable": null,
		"isQuestion": false
	}, {
		"contentType": "PARAGRAPH",
		"contentData": {
			"question": null,
			"answer": null,
			"questionId": null,
			"answerId": null,
			"text": "Employees:",
			"answerType": null,
			"possibleAnswer": null,
			"riskScore": null,
			"isoCode": null
		},
		"contentDataTable": null,
		"isQuestion": false
	}, {
		"contentType": "SUB PARAGRAPH",
		"contentData": {
			"question": "Does the proposer distribute information security policies to its employees?",
			"answer": "no",
			"questionId": 703,
			"answerId": 220,
			"text": null,
			"answerType": "CHECKBOX",
			"possibleAnswer": "yes,no",
			"riskScore": null,
			"isoCode": null
		},
		"contentDataTable": null,
		"isQuestion": true
	}, {
		"contentType": "SUB PARAGRAPH",
		"contentData": {
			"question": "Do you provide awareness training for employees in data privacy ad security including legal liability and social engineering issues?",
			"answer": "no",
			"questionId": 704,
			"answerId": 221,
			"text": null,
			"answerType": "CHECKBOX",
			"possibleAnswer": "yes,no",
			"riskScore": null,
			"isoCode": null
		},
		"contentDataTable": null,
		"isQuestion": true
	}, {
		"contentType": "SUB PARAGRAPH",
		"contentData": {
			"question": null,
			"answer": null,
			"questionId": null,
			"answerId": null,
			"text": "What is the frequency of training? ",
			"answerType": null,
			"possibleAnswer": null,
			"riskScore": null,
			"isoCode": null
		},
		"contentDataTable": null,
		"isQuestion": false
	}, {
		"contentType": null,
		"contentData": null,
		"contentDataTable": null,
		"isQuestion": false
	}, {
		"contentType": "SUB PARAGRAPH",
		"contentData": {
			"question": "Is write access to USB drives disabled for employees?",
			"answer": "no",
			"questionId": 706,
			"answerId": 222,
			"text": null,
			"answerType": "CHECKBOX",
			"possibleAnswer": "yes,no",
			"riskScore": null,
			"isoCode": null
		},
		"contentDataTable": null,
		"isQuestion": true
	}, {
		"contentType": "SUB PARAGRAPH",
		"contentData": {
			"question": "Do you have a procedure for the revocation of user accounts and the recovery of inventoried information assets following an employee’s departure from your organisation?",
			"answer": "no",
			"questionId": 707,
			"answerId": 223,
			"text": null,
			"answerType": "CHECKBOX",
			"possibleAnswer": "yes,no",
			"riskScore": null,
			"isoCode": null
		},
		"contentDataTable": null,
		"isQuestion": true
	}, {
		"contentType": "PARAGRAPH",
		"contentData": {
			"question": null,
			"answer": null,
			"questionId": null,
			"answerId": null,
			"text": "Media content:",
			"answerType": null,
			"possibleAnswer": null,
			"riskScore": null,
			"isoCode": null
		},
		"contentDataTable": null,
		"isQuestion": false
	}, {
		"contentType": "SUB PARAGRAPH",
		"contentData": {
			"question": "Do you have written clearance procedures in place regarding use, licensing, and consent agreements for third party content used by you on your website or in your promotional materials?",
			"answer": "no",
			"questionId": 709,
			"answerId": 224,
			"text": null,
			"answerType": "CHECKBOX",
			"possibleAnswer": "yes,no",
			"riskScore": null,
			"isoCode": null
		},
		"contentDataTable": null,
		"isQuestion": true
	}, {
		"contentType": "SUB PARAGRAPH",
		"contentData": {
			"question": "Does your website feature opt in/opt out procedures when collecting individual users’ information?",
			"answer": "no",
			"questionId": 710,
			"answerId": 225,
			"text": null,
			"answerType": "CHECKBOX",
			"possibleAnswer": "yes,no",
			"riskScore": null,
			"isoCode": null
		},
		"contentDataTable": null,
		"isQuestion": true
	}, {
		"contentType": "SUB PARAGRAPH",
		"contentData": {
			"question": "Do you or have you ever used flash cookies on your website to track visitors?",
			"answer": "no",
			"questionId": 711,
			"answerId": 226,
			"text": null,
			"answerType": "CHECKBOX",
			"possibleAnswer": "yes,no",
			"riskScore": null,
			"isoCode": null
		},
		"contentDataTable": null,
		"isQuestion": true
	}, {
		"contentType": "SUB PARAGRAPH",
		"contentData": {
			"question": "Do you have written guidelines for your use of social media and its use by your employees?",
			"answer": "no",
			"questionId": 712,
			"answerId": 227,
			"text": null,
			"answerType": "CHECKBOX",
			"possibleAnswer": "yes,no",
			"riskScore": null,
			"isoCode": null
		},
		"contentDataTable": null,
		"isQuestion": true
	}, {
		"contentType": "SUB PARAGRAPH",
		"contentData": {
			"question": "Has legal counsel verified that your domain names(s) and meta tags do not infringe on any third party’s copyright or trademark?",
			"answer": "no",
			"questionId": 713,
			"answerId": 228,
			"text": null,
			"answerType": "CHECKBOX",
			"possibleAnswer": "yes,no",
			"riskScore": null,
			"isoCode": null
		},
		"contentDataTable": null,
		"isQuestion": true
	}, {
		"contentType": "SUB PARAGRAPH",
		"contentData": {
			"question": "Do you solicit/promote your business via unsolicited email blasts?",
			"answer": "no",
			"questionId": 714,
			"answerId": 229,
			"text": null,
			"answerType": "CHECKBOX",
			"possibleAnswer": "yes,no",
			"riskScore": null,
			"isoCode": null
		},
		"contentDataTable": null,
		"isQuestion": true
	}, {
		"contentType": "SUB PARAGRAPH",
		"contentData": {
			"question": "Do you host any user-generated content or social media networks?",
			"answer": "no",
			"questionId": 715,
			"answerId": 230,
			"text": null,
			"answerType": "CHECKBOX",
			"possibleAnswer": "yes,no",
			"riskScore": null,
			"isoCode": null
		},
		"contentDataTable": null,
		"isQuestion": true
	}, {
		"contentType": "SUB PARAGRAPH",
		"contentData": {
			"question": "Do you have a formalized take-down procedure for comments or content placed on your social media sites by third parties?",
			"answer": "no",
			"questionId": 716,
			"answerId": 231,
			"text": null,
			"answerType": "CHECKBOX",
			"possibleAnswer": "yes,no",
			"riskScore": null,
			"isoCode": null
		},
		"contentDataTable": null,
		"isQuestion": true
	}, {
		"contentType": "SUB PARAGRAPH",
		"contentData": {
			"question": null,
			"answer": null,
			"questionId": null,
			"answerId": null,
			"text": "Please provide details regarding any publishing or broadcasting you perform beyond advertising your own business (e.g. publishing of a trade journal): ",
			"answerType": null,
			"possibleAnswer": null,
			"riskScore": null,
			"isoCode": null
		},
		"contentDataTable": null,
		"isQuestion": false
	}, {
		"contentType": null,
		"contentData": null,
		"contentDataTable": null,
		"isQuestion": false
	}, {
		"contentType": "PARAGRAPH",
		"contentData": {
			"question": null,
			"answer": null,
			"questionId": null,
			"answerId": null,
			"text": "Event history:",
			"answerType": null,
			"possibleAnswer": null,
			"riskScore": null,
			"isoCode": null
		},
		"contentDataTable": null,
		"isQuestion": false
	}, {
		"contentType": "PARAGRAPH",
		"contentData": {
			"question": null,
			"answer": null,
			"questionId": null,
			"answerId": null,
			"text": "Has the organisation suffered any of the following events:",
			"answerType": null,
			"possibleAnswer": null,
			"riskScore": null,
			"isoCode": null
		},
		"contentDataTable": null,
		"isQuestion": false
	}, {
		"contentType": "SUB PARAGRAPH",
		"contentData": {
			"question": null,
			"answer": null,
			"questionId": null,
			"answerId": null,
			"text": "Unauthorised disclosure of non-public personally identifiable information; YES?/NO?",
			"answerType": null,
			"possibleAnswer": null,
			"riskScore": null,
			"isoCode": null
		},
		"contentDataTable": null,
		"isQuestion": false
	}, {
		"contentType": "SUB PARAGRAPH",
		"contentData": {
			"question": null,
			"answer": null,
			"questionId": null,
			"answerId": null,
			"text": "If yes, please provide details:",
			"answerType": null,
			"possibleAnswer": null,
			"riskScore": null,
			"isoCode": null
		},
		"contentDataTable": null,
		"isQuestion": false
	}, {
		"contentType": null,
		"contentData": null,
		"contentDataTable": null,
		"isQuestion": false
	}, {
		"contentType": "PARAGRAPH",
		"contentData": {
			"question": null,
			"answer": null,
			"questionId": null,
			"answerId": null,
			"text": "  ",
			"answerType": null,
			"possibleAnswer": null,
			"riskScore": null,
			"isoCode": null
		},
		"contentDataTable": null,
		"isQuestion": false
	}, {
		"contentType": "SUB PARAGRAPH",
		"contentData": {
			"question": null,
			"answer": null,
			"questionId": null,
			"answerId": null,
			"text": "Unavailability of an IT system or data, that has had a material negative revenue impact or has resulted in increased cost of working; YES?/NO?      ",
			"answerType": null,
			"possibleAnswer": null,
			"riskScore": null,
			"isoCode": null
		},
		"contentDataTable": null,
		"isQuestion": false
	}, {
		"contentType": "SUB PARAGRAPH",
		"contentData": {
			"question": null,
			"answer": null,
			"questionId": null,
			"answerId": null,
			"text": "If yes, please provide details:",
			"answerType": null,
			"possibleAnswer": null,
			"riskScore": null,
			"isoCode": null
		},
		"contentDataTable": null,
		"isQuestion": false
	}, {
		"contentType": null,
		"contentData": null,
		"contentDataTable": null,
		"isQuestion": false
	}, {
		"contentType": "PARAGRAPH",
		"contentData": {
			"question": null,
			"answer": null,
			"questionId": null,
			"answerId": null,
			"text": "    ",
			"answerType": null,
			"possibleAnswer": null,
			"riskScore": null,
			"isoCode": null
		},
		"contentDataTable": null,
		"isQuestion": false
	}, {
		"contentType": "SUB PARAGRAPH",
		"contentData": {
			"question": null,
			"answer": null,
			"questionId": null,
			"answerId": null,
			"text": "Receipt of an extortion demand based on a threat to your IT system or data; YES?/NO?",
			"answerType": null,
			"possibleAnswer": null,
			"riskScore": null,
			"isoCode": null
		},
		"contentDataTable": null,
		"isQuestion": false
	}, {
		"contentType": "SUB PARAGRAPH",
		"contentData": {
			"question": null,
			"answer": null,
			"questionId": null,
			"answerId": null,
			"text": "If yes, please provide details:",
			"answerType": null,
			"possibleAnswer": null,
			"riskScore": null,
			"isoCode": null
		},
		"contentDataTable": null,
		"isQuestion": false
	}, {
		"contentType": null,
		"contentData": null,
		"contentDataTable": null,
		"isQuestion": false
	}, {
		"contentType": "SUB PARAGRAPH",
		"contentData": {
			"question": null,
			"answer": null,
			"questionId": null,
			"answerId": null,
			"text": "Damage, destruction, corruption deletion or loss of data or computer programs; YES?/NO?",
			"answerType": null,
			"possibleAnswer": null,
			"riskScore": null,
			"isoCode": null
		},
		"contentDataTable": null,
		"isQuestion": false
	}, {
		"contentType": "SUB PARAGRAPH",
		"contentData": {
			"question": null,
			"answer": null,
			"questionId": null,
			"answerId": null,
			"text": "If yes, please provide details:",
			"answerType": null,
			"possibleAnswer": null,
			"riskScore": null,
			"isoCode": null
		},
		"contentDataTable": null,
		"isQuestion": false
	}, {
		"contentType": null,
		"contentData": null,
		"contentDataTable": null,
		"isQuestion": false
	}, {
		"contentType": "SUB PARAGRAPH",
		"contentData": {
			"question": null,
			"answer": null,
			"questionId": null,
			"answerId": null,
			"text": "Receipt of a claim for financial compensation from a third party arising from a breach of your network security YES?/NO?",
			"answerType": null,
			"possibleAnswer": null,
			"riskScore": null,
			"isoCode": null
		},
		"contentDataTable": null,
		"isQuestion": false
	}, {
		"contentType": "SUB PARAGRAPH",
		"contentData": {
			"question": null,
			"answer": null,
			"questionId": null,
			"answerId": null,
			"text": "If yes, please provide details:",
			"answerType": null,
			"possibleAnswer": null,
			"riskScore": null,
			"isoCode": null
		},
		"contentDataTable": null,
		"isQuestion": false
	}, {
		"contentType": null,
		"contentData": null,
		"contentDataTable": null,
		"isQuestion": false
	}, {
		"contentType": "PARAGRAPH",
		"contentData": {
			"question": null,
			"answer": null,
			"questionId": null,
			"answerId": null,
			"text": "    ",
			"answerType": null,
			"possibleAnswer": null,
			"riskScore": null,
			"isoCode": null
		},
		"contentDataTable": null,
		"isQuestion": false
	}, {
		"contentType": "SUB PARAGRAPH",
		"contentData": {
			"question": null,
			"answer": null,
			"questionId": null,
			"answerId": null,
			"text": "Receipt of a claim for financial compensation arising from the content of your website(s), intranet(s), other web accessible corporate content, or any other electronic communication; YES?/NO?",
			"answerType": null,
			"possibleAnswer": null,
			"riskScore": null,
			"isoCode": null
		},
		"contentDataTable": null,
		"isQuestion": false
	}, {
		"contentType": "SUB PARAGRAPH",
		"contentData": {
			"question": null,
			"answer": null,
			"questionId": null,
			"answerId": null,
			"text": "If yes, please provide details:",
			"answerType": null,
			"possibleAnswer": null,
			"riskScore": null,
			"isoCode": null
		},
		"contentDataTable": null,
		"isQuestion": false
	}, {
		"contentType": null,
		"contentData": null,
		"contentDataTable": null,
		"isQuestion": false
	}, {
		"contentType": "PARAGRAPH",
		"contentData": {
			"question": null,
			"answer": null,
			"questionId": null,
			"answerId": null,
			"text": "    ",
			"answerType": null,
			"possibleAnswer": null,
			"riskScore": null,
			"isoCode": null
		},
		"contentDataTable": null,
		"isQuestion": false
	}, {
		"contentType": "SUB PARAGRAPH",
		"contentData": {
			"question": null,
			"answer": null,
			"questionId": null,
			"answerId": null,
			"text": "Been subject to a regulatory proceeding in connection with the breach of any applicable law concerning personal information YES?/NO?",
			"answerType": null,
			"possibleAnswer": null,
			"riskScore": null,
			"isoCode": null
		},
		"contentDataTable": null,
		"isQuestion": false
	}, {
		"contentType": "SUB PARAGRAPH",
		"contentData": {
			"question": null,
			"answer": null,
			"questionId": null,
			"answerId": null,
			"text": "If yes, please provide details:",
			"answerType": null,
			"possibleAnswer": null,
			"riskScore": null,
			"isoCode": null
		},
		"contentDataTable": null,
		"isQuestion": false
	}, {
		"contentType": null,
		"contentData": null,
		"contentDataTable": null,
		"isQuestion": false
	}, {
		"contentType": "PARAGRAPH",
		"contentData": {
			"question": null,
			"answer": null,
			"questionId": null,
			"answerId": null,
			"text": "    ",
			"answerType": null,
			"possibleAnswer": null,
			"riskScore": null,
			"isoCode": null
		},
		"contentDataTable": null,
		"isQuestion": false
	}, {
		"contentType": "PARAGRAPH",
		"contentData": {
			"question": null,
			"answer": null,
			"questionId": null,
			"answerId": null,
			"text": "\n",
			"answerType": null,
			"possibleAnswer": null,
			"riskScore": null,
			"isoCode": null
		},
		"contentDataTable": null,
		"isQuestion": false
	}, {
		"contentType": "PARAGRAPH",
		"contentData": {
			"question": null,
			"answer": null,
			"questionId": null,
			"answerId": null,
			"text": "MATERIAL INFORMATION\t",
			"answerType": null,
			"possibleAnswer": null,
			"riskScore": null,
			"isoCode": null
		},
		"contentDataTable": null,
		"isQuestion": false
	}, {
		"contentType": "PARAGRAPH",
		"contentData": {
			"question": null,
			"answer": null,
			"questionId": null,
			"answerId": null,
			"text": "It is your duty to disclose all material facts to insurers. A material fact is one which may influence an insurer’s judgement in his consideration of your proposal. If your proposal is a renewal, it is likely that any change in facts previously advised to insurers will be material and such changes should therefore be notified. If you are in any doubt as to whether a fact is material, you should disclose it.",
			"answerType": null,
			"possibleAnswer": null,
			"riskScore": null,
			"isoCode": null
		},
		"contentDataTable": null,
		"isQuestion": false
	}, {
		"contentType": "PARAGRAPH",
		"contentData": {
			"question": null,
			"answer": null,
			"questionId": null,
			"answerId": null,
			"text": "Failure to disclose could prejudice your rights to recover in the event of a claim or enable insurers to void the policy.",
			"answerType": null,
			"possibleAnswer": null,
			"riskScore": null,
			"isoCode": null
		},
		"contentDataTable": null,
		"isQuestion": false
	}, {
		"contentType": "PARAGRAPH",
		"contentData": {
			"question": null,
			"answer": null,
			"questionId": null,
			"answerId": null,
			"text": "Please provide details of any other information which may be material to insurers consideration of your application for insurance.",
			"answerType": null,
			"possibleAnswer": null,
			"riskScore": null,
			"isoCode": null
		},
		"contentDataTable": null,
		"isQuestion": false
	}, {
		"contentType": null,
		"contentData": null,
		"contentDataTable": null,
		"isQuestion": false
	}, {
		"contentType": "PARAGRAPH",
		"contentData": {
			"question": null,
			"answer": null,
			"questionId": null,
			"answerId": null,
			"text": "    ",
			"answerType": null,
			"possibleAnswer": null,
			"riskScore": null,
			"isoCode": null
		},
		"contentDataTable": null,
		"isQuestion": false
	}, {
		"contentType": "PARAGRAPH",
		"contentData": {
			"question": null,
			"answer": null,
			"questionId": null,
			"answerId": null,
			"text": "DECLARATION",
			"answerType": null,
			"possibleAnswer": null,
			"riskScore": null,
			"isoCode": null
		},
		"contentDataTable": null,
		"isQuestion": false
	}, {
		"contentType": "PARAGRAPH",
		"contentData": {
			"question": null,
			"answer": null,
			"questionId": null,
			"answerId": null,
			"text": "I, the undersigned, as the person responsible for arranging the insured’s insurance, AFTER REASONABLE ENQUIRY, confirm that I am not aware of any circumstances that (to the best of your knowledge and belief) would give rise to a claim against the Firm, its predecessors in business or past or present partner, principal, director or employee.",
			"answerType": null,
			"possibleAnswer": null,
			"riskScore": null,
			"isoCode": null
		},
		"contentDataTable": null,
		"isQuestion": false
	}, {
		"contentType": null,
		"contentData": null,
		"contentDataTable": null,
		"isQuestion": false
	}, {
		"contentType": "PARAGRAPH",
		"contentData": {
			"question": null,
			"answer": null,
			"questionId": null,
			"answerId": null,
			"text": "    ",
			"answerType": null,
			"possibleAnswer": null,
			"riskScore": null,
			"isoCode": null
		},
		"contentDataTable": null,
		"isQuestion": false
	}, {
		"contentType": "PARAGRAPH",
		"contentData": {
			"question": null,
			"answer": null,
			"questionId": null,
			"answerId": null,
			"text": "Job title:Click here to enter text.",
			"answerType": null,
			"possibleAnswer": null,
			"riskScore": null,
			"isoCode": null
		},
		"contentDataTable": null,
		"isQuestion": false
	}, {
		"contentType": "PARAGRAPH",
		"contentData": {
			"question": null,
			"answer": null,
			"questionId": null,
			"answerId": null,
			"text": "Date: Click here to enter text.",
			"answerType": null,
			"possibleAnswer": null,
			"riskScore": null,
			"isoCode": null
		},
		"contentDataTable": null,
		"isQuestion": false
	}, {
		"contentType": "PARAGRAPH",
		"contentData": {
			"question": null,
			"answer": null,
			"questionId": null,
			"answerId": null,
			"text": "Supplementary Information",
			"answerType": null,
			"possibleAnswer": null,
			"riskScore": null,
			"isoCode": null
		},
		"contentDataTable": null,
		"isQuestion": false
	}, {
		"contentType": "PARAGRAPH",
		"contentData": {
			"question": null,
			"answer": null,
			"questionId": null,
			"answerId": null,
			"text": "Please include the documents listed below and indicate to show their inclusion as part of your submission to insurers.",
			"answerType": null,
			"possibleAnswer": null,
			"riskScore": null,
			"isoCode": null
		},
		"contentDataTable": null,
		"isQuestion": false
	}, {
		"contentType": null,
		"contentData": null,
		"contentDataTable": null,
		"isQuestion": false
	}, {
		"contentType": "PARAGRAPH",
		"contentData": {
			"question": null,
			"answer": null,
			"questionId": null,
			"answerId": null,
			"text": " \n",
			"answerType": null,
			"possibleAnswer": null,
			"riskScore": null,
			"isoCode": null
		},
		"contentDataTable": null,
		"isQuestion": false
	}, {
		"contentType": "PARAGRAPH",
		"contentData": {
			"question": null,
			"answer": null,
			"questionId": null,
			"answerId": null,
			"text": " ",
			"answerType": null,
			"possibleAnswer": null,
			"riskScore": null,
			"isoCode": null
		},
		"contentDataTable": null,
		"isQuestion": false
	}]
]