[{
"name": "Shareholders",
"children":[{
	"Shareholders type": "Other institutional",
	"Share(%)": 0.28
        }, {
	"Shareholders type":"Mutual fund holders",
	"Share(%)": 0.03
        },{
	"Shareholders type":"Individual stakeholders",
	"Share(%)": "--"
        }]
}]