{
    "data": {
        "results": [
            {
                "identifier": "05623145",
                "result": {
                    "data": {
                        "bloomberg.com": [
                            {
                                "officership": [
                                    {
                                        "date_of_birth": {
                                            "year": "1968",
                                            "month": "06"
                                        },
                                        "name": "KELLY A. AYOTTE",
                                        "type": "individual",
                                        "address": {
                                            "address_line_1": "C/o",
                                            "postal_code": " United States"
                                        },
                                        "officer_role": "Director",
                                        "status": "Active",
                                        "country_of_residence": "United States",
                                        "occupation": "Attorney",
                                        "information_source": "bloomberg.com",
                                        "information_provider": "bloomberg",
                                        "appointment_date": ""
                                    },
                                    {
                                        "date_of_birth": {
                                            "year": "1957",
                                            "month": "04"
                                        },
                                        "name": "Dave Calhoun",
                                        "type": "individual",
                                        "address": {
                                            "address_line_1": "C/o",
                                            "postal_code": " United States"
                                        },
                                        "officer_role": "Executive Chairman,",
                                        "status": "Active",
                                        "country_of_residence": "United States",
                                        "occupation": "businessman",
                                        "information_source": "bloomberg.com",
                                        "information_provider": "bloomberg",
                                        "appointment_date": ""
                                    },
                                    {
                                        "date_of_birth": {
                                            "year": "1961",
                                            "month": ""
                                        },
                                        "name": "DANIEL M. DICKINSON",
                                        "type": "individual",
                                        "address": {
                                            "address_line_1": "C/o",
                                            "postal_code": " United States"
                                        },
                                        "officer_role": "Board Member",
                                        "status": "Active",
                                        "country_of_residence": "United States",
                                        "occupation": "businessman",
                                        "information_source": "bloomberg.com",
                                        "information_provider": "bloomberg",
                                        "appointment_date": ""
                                    },
                                    {
                                        "date_of_birth": {
                                            "year": "1948",
                                            "month": ""
                                        },
                                        "name": "Juan Gallardo",
                                        "type": "individual",
                                        "address": {
                                            "address_line_1": "C/o",
                                            "postal_code": " United States"
                                        },
                                        "officer_role": "Board Member",
                                        "status": "Active",
                                        "country_of_residence": "United States",
                                        "occupation": " businessman",
                                        "information_source": "bloomberg.com",
                                        "information_provider": "bloomberg",
                                        "appointment_date": ""
                                    },
                                    {
                                        "date_of_birth": {
                                            "year": "1964",
                                            "month": "07"
                                        },
                                        "name": "DENNIS A. MUILENBURG",
                                        "type": "individual",
                                        "address": {
                                            "address_line_1": "C/o",
                                            "postal_code": " United States"
                                        },
                                        "officer_role": "Board Member",
                                        "status": "Active",
                                        "country_of_residence": "United States",
                                        "occupation": "businessman",
                                        "information_source": "bloomberg.com",
                                        "information_provider": "bloomberg",
                                        "appointment_date": ""
                                    },
                                    {
                                        "date_of_birth": {
                                            "year": "1947",
                                            "month": "07"
                                        },
                                        "name": "William A. Osborn",
                                        "type": "individual",
                                        "address": {
                                            "address_line_1": "C/o",
                                            "postal_code": " United States"
                                        },
                                        "officer_role": "Board Member",
                                        "status": "Active",
                                        "country_of_residence": "United States",
                                        "occupation": "Chief Executive",
                                        "information_source": "bloomberg.com",
                                        "information_provider": "bloomberg",
                                        "appointment_date": ""
                                    },
                                    {
                                        "date_of_birth": {
                                            "year": "1955",
                                            "month": ""
                                        },
                                        "name": "Debra L. Reed-Klages",
                                        "type": "individual",
                                        "address": {
                                            "address_line_1": "C/o",
                                            "postal_code": " United States"
                                        },
                                        "officer_role": "Board Member",
                                        "status": "Active",
                                        "country_of_residence": "United States",
                                        "occupation": "Chief Executive",
                                        "information_source": "bloomberg.com",
                                        "information_provider": "bloomberg",
                                        "appointment_date": ""
                                    },
                                    {
                                        "date_of_birth": {
                                            "year": "1950",
                                            "month": "08"
                                        },
                                        "name": "Edward B. Rust Jr.",
                                        "type": "individual",
                                        "address": {
                                            "address_line_1": "C/o",
                                            "postal_code": " United States"
                                        },
                                        "officer_role": "Board Member",
                                        "status": "Active",
                                        "country_of_residence": "United States",
                                        "occupation": "Executive",
                                        "information_source": "bloomberg.com",
                                        "information_provider": "bloomberg",
                                        "appointment_date": ""
                                    },
                                    {
                                        "date_of_birth": {
                                            "year": "1955",
                                            "month": "03"
                                        },
                                        "name": "Susan Schwab",
                                        "type": "individual",
                                        "address": {
                                            "address_line_1": "C/o",
                                            "postal_code": " United States"
                                        },
                                        "officer_role": "Board Member",
                                        "status": "Active",
                                        "country_of_residence": "United States",
                                        "occupation": "businessman",
                                        "information_source": "bloomberg.com",
                                        "information_provider": "bloomberg",
                                        "appointment_date": ""
                                    },
                                    {
                                        "date_of_birth": {
                                            "year": "1958",
                                            "month": ""
                                        },
                                        "name": "Jim Umpleby",
                                        "type": "individual",
                                        "address": {
                                            "address_line_1": "C/o",
                                            "postal_code": " United States"
                                        },
                                        "officer_role": "CEO",
                                        "status": "Active",
                                        "country_of_residence": "United States",
                                        "occupation": "businessman",
                                        "information_source": "bloomberg.com",
                                        "information_provider": "bloomberg",
                                        "appointment_date": ""
                                    },
                                    {
                                        "date_of_birth": {
                                            "year": "1955",
                                            "month": ""
                                        },
                                        "name": "Miles D. White",
                                        "type": "individual",
                                        "address": {
                                            "address_line_1": "C/o",
                                            "postal_code": " United States"
                                        },
                                        "officer_role": "Board Member",
                                        "status": "Active",
                                        "country_of_residence": "United States",
                                        "occupation": "businessman",
                                        "information_source": "bloomberg.com",
                                        "information_provider": "bloomberg",
                                        "appointment_date": ""
                                    },
                                    {
                                        "date_of_birth": {
                                            "year": "1951",
                                            "month": "08"
                                        },
                                        "name": "Rayford Wilkins Jr.",
                                        "type": "individual",
                                        "address": {
                                            "address_line_1": "C/o",
                                            "postal_code": " United State"
                                        },
                                        "officer_role": "Director",
                                        "status": "Active",
                                        "country_of_residence": "United State",
                                        "occupation": "businessman",
                                        "information_source": "https://www.bloomberg.com/research/stocks/people/person.asp?personId=1492236&privcapId=529623070",
                                        "information_provider": "Bloomberberg",
                                        "appointment_date": "2017"
                                    }
                                ]
                            }
                        ]
                    },
                    "_links": {
                        "overview": "https://jxpijrclv4.execute-api.eu-west-1.amazonaws.com/Prod/organizations/05623145?fields=overview",
                        "documents": "https://jxpijrclv4.execute-api.eu-west-1.amazonaws.com/Prod/organizations/05623145?fields=documents",
                        "officership": "https://jxpijrclv4.execute-api.eu-west-1.amazonaws.com/Prod/organizations/05623145?fields=officership"
                    }
                }
            }
        ],
        "statuses": []
    },
    "status": true,
    "message": "",
    "code": 200,
    "developerMsg": ""
}