{
  "data": {
    "results": [
      {
        "identifier": "prayon_sa",
        "result": {
          "data": {
             "www.prayon.com": [
                    {
                        "documents": [
                            {
                                "date": "2018-05-15",
                                "description": "Report Annual 2017  made on 15 May 2018 with updates",
                                "url": "http://www.prayon.com/publications/rapport-annuel-fr-2017-fr/files/assets/common/downloads/publication.pdf"
                            },
                            {
                                "date": "2006",
                                "description": "group prayon engagement formation",
                                "url": "http://www.prayon.com/media/cms/Communiques/communiqueCCINordIsere.pdf"
                            },
                            {
                                "date": "2012-05-15",
                                "description": "Report Annual 2011  made on 15 May 2012 with updates",
                                "url": "http://www.prayon.com/media/cms/rapport-annuel-2011-FR.pdf"
                            },
                            {
                                "date": "30-10-2012",
                                "description": "Prayon signs agreement with PhosAgro on transfer of technology for extracting rare earth elements",
                                "url": "http://www.prayon.com/media/cms/PHOSAGRO_UK.pdf"
                            },
                            {
                                "date": "26-10-2012",
                                "description": "Prayon and HortiMaX join forces to improve irrigation",
                                "url": "http://www.prayon.com/media/cms/Prayon%20and%20HortiMaX%20join%20forces%20to%20improve%20irrigation.pdf"
                            },
                            {
                                "date": "15-05-2012",
                                "description": "Umicore and Prayon join forces to develop and produce phosphate-based cathode materials for lithium-ion batteries",
                                "url": "http://www.prayon.com/media/cms/prayon_umicore_en.pdf"
                            },
                            {
                                "date": "14-05-2012",
                                "description": "Prayon obtains worldwide sublicense for lithium iron phosphate battery material",
                                "url": "http://www.prayon.com/media/cms/pr_alliance%20UK.pdf"
                            },
                             {
                                "date": "18-06-2013",
                                "description": "Prayon launches innovative new fertiliser that efficiently combines iron with phosphates ",
                                "url": "http://www.prayon.com/media/cms/micronutriFe_UK.pdf"
                            },
                            {
                                "date": "17-12-2014",
                                "description": "Press release: Umicore and Prayon launch pioneering environmental project",
                                "url": "http://www.prayon.com/media/cms/ENG_V1%20Umicore%20and%20Prayon%20launch%20pioneering%20environmental%20project.pdf"
                            },
                            {
                                "date": "12-03-2015",
                                "description": "Prayon To Double its Production Capacity of Food Grade Sodium Hexametaphosphate (SHMP)",
                                "url": "http://www.prayon.com/media/cms/Phosphate%20Price%20PR.pdf"
                            },
                            {
                                "date": "10-02-2015",
                                "description": "Prayon to raise phosphate prices",
                                "url": "http://www.prayon.com/media/cms/SHMP%20PRESS%20RELEASE.pdf"
                            }
                        ]
                    }
                ]
          },
          "_links": {
            "overview": "https://jxpijrclv4.execute-api.eu-west-1.amazonaws.com/Prod/organizations/prayon_sa?fields=overview",
            "finance_info": "https://jxpijrclv4.execute-api.eu-west-1.amazonaws.com/Prod/organizations/prayon_sa?fields=finance_info",
            "shareholders": "https://jxpijrclv4.execute-api.eu-west-1.amazonaws.com/Prod/organizations/prayon_sa?fields=shareholders",
            "documents": "https://jxpijrclv4.execute-api.eu-west-1.amazonaws.com/Prod/organizations/prayon_sa?fields=documents",
            "officership": "https://jxpijrclv4.execute-api.eu-west-1.amazonaws.com/Prod/organizations/prayon_sa?fields=officership",
            "holdings": "https://jxpijrclv4.execute-api.eu-west-1.amazonaws.com/Prod/organizations/prayon_sa?fields=holdings"
          }
        }
      }
    ],
    "statuses": [
      
    ]
  },
  "status": true,
  "message": "",
  "code": 200,
  "developerMsg": ""
}