{
    "data": {
        "results": [
            {
                "identifier": "549300i7dz2o8hcxyk97",
                "result": {
                    "data": {
                        "BST": [
                            {
                                "overview": {
                                    "identifiers": {
                                        "trade_register_number": "0405.742.090",
                                        "vat_tax_number": "0405.742.090",
                                        "european_vat_number": "BE0405742090",
                                        "legal_entity_identifier": "549300I7DZ2O8HCXYK97",
                                        "other_company_id_number": "0700372-97"
                                    },
                                    "isDomiciledIn": "BE",
                                    "vcard:organization-name": "Prayon Benelux",
                                    "industry": "Chemicals",
                                    "hasURL": "www.prayon.com",
                                    "business_type": "Chemicals Distribution",
                                    "nature_of_business":"Supplier",
                                    "bizType":"Materials",
                                    "tr-org:hasHeadquartersPhoneNumber": "3238601828",
                                    "tr-org:hasHeadquartersFaxNumber": "3238601829",
                                    "revenue":"$10.86",
                                     "email":"prt@prayon.com",
                                    "mdaas:RegisteredAddress": [
                                        {
                                            "type": "Registered address / Incorporation address / Legal address",
                                            "streetAddress": "Gansbroekstraat 31 b.A",
                                            "city": "Ruisbroek (Antw.)",
                                            "country": "Belgium",
                                            "zip": "2870",
                                            "fullAddress": "Gansbroekstraat 31 b.A Ruisbroek (Antw.) Belgium 2870"
                                        }
                                    ],
                                    "lei:legalForm": {
                                        "label": "Public limited companies",
                                        "code": "N/A"
                                    },
                                    "hasLatestOrganizationFoundedDate": "1939-07-01",
                                    "hasActivityStatus": "active",
                                    "size": "L",
                                    "bst:stock_info": {
                                        "ticket_symbol": "Unlisted",
                                        "main_exchange": "Unlisted"
                                    },
                                    "bst:description": "This company operates as a worldwide leader in phospate creativity. It was incorporated in 1939 and has its registered office in Ruisbroek (Antw.), Belgium. The company has expertise in Phosphoric acid production, Phosphoric acid concentration, Fluorine recovery, Purification of gypsum, gas scrubbing, and Purification of phosphoric acid. It aims to be a leading player in niche markets such as food additives, horticulture and industrial applications, offering a high level of added value. It also want to further consolidate its position as the world leader in phosphoric acid technology. It also aims to be innovative an international chemical company that uses sustainable technologies to provide quality products and first-class associated services in direct response to market needs.",
                                    "bst:businessClassifier": [
                                        {
                                            "code": "424690",
                                            "description": "Other Chemical and Allied Products Merchant Wholesalers",
                                            "label": "NAICS"
                                        },
		  								{
		  									"standard": "ISIC",
		  									"code": "V"
		  								}
                                    ]
                                }
                            }
                        ],
                        "permid.org": [
                            {
                                "overview": {
                                  
                                    "vcard:organization-name": "Prayon Benelux NV",
                                    "isDomiciledIn": "BE",
                                    "country":"Belgium",
                                    "isIncorporatedIn": "1968-01-01",
                                    "tr-org:hasRegisteredPhoneNumber": "3238601828",
                                    "identifiers": {
                                        "legal_entity_identifier": "549300I7DZ2O8HCXYK97"
                                    },
                                    "bst:registryURI": "https://permid.org/1-5045167773",
                                    "hasRegisteredFaxNumber": "3238601829",
                                    "mdaas:RegisteredAddress": [{
                                        "country": "Belgium",
                                        "fullAddress": "Gansbroekstraat 31A\nPUURS\nANTWERPEN\n2870\nBelgium\n"
                                    }],
                                    "CountryOperations": [
                                        {
                                            "Country": "BE"
                                        }
                                    ],
                                    "tr-org:hasHeadquartersPhoneNumber": "3238601828",
                                    "tr-org:hasHeadquartersFaxNumber": "3238601829",
                                    "@is-manual": false,
                                    "hasURL": "http://www.prayonbenelux.be/",
                                    "bst:description": "entity type:Organization, is public:false, ",
                                    "@source-id": "permid.org",
                                    "tr-org:hasLEI": "549300I7DZ2O8HCXYK97"
                                },
                                "bst:registryURI": "https://permid.org/1-5045167773",
                                "_links": {
                                    "overview": "https://jxpijrclv4.execute-api.eu-west-1.amazonaws.com/Prod/organizations/549300i7dz2o8hcxyk97?fields=overview",
                                    "officership": "https://jxpijrclv4.execute-api.eu-west-1.amazonaws.com/Prod/organizations/549300i7dz2o8hcxyk97?fields=officership"
                                }
                            }
                        ],
                        "coptis.com": [
                            {
                                "@identifier": "null",
                                "overview": {
                                    "@is-manual": false,
                                    "vcard:organization-name": "Prayon Benelux NV",
                                    "lei:legalForm": {
                                        "label": "Public limited companies",
                                        "code": "N/A"
                                    },
                                    "bst:description": "As a wholly owned subsidiary of Prayon SA (headquartered in Engis, Belgium) Prayon Benelux NV is responsible for the sales of all Prayon products on the Benelux market. Prayon is a world leader in the production of phosphoric acid and phosphates",
                                    "@source-id": "coptis.com",
                                    "hasLatestOrganizationFoundedDate": "1939",
                                    "tr-org:hasHeadquartersPhoneNumber": "3238601828",
                                    "tr-org:hasHeadquartersFaxNumber": "3238601829",
                                    "hasURL": "http://www.prayonbenelux.be/",
                                    "mdaas:RegisteredAddress": [{
                                        "country": "Belgium",
                                        "fullAddress": "Gansbroekstraat, 31 A, 2870 Ruisbroek"
                                    }],
                                    "hasActivityStatus": "active",
                                    "isDomiciledIn": "BE",
                                    "CountryOperations": {
                                        "Country": "BE"
                                    }
                                }
                            }
                        ],
                        "bloomberg.com": [
                            {
                                "@identifier": "null",
                                "overview": {
                                    "@is-manual": false,
                                    "vcard:organization-name": "Prayon Benelux NV",                                   
                                    "Industry": "Chemicals",
                                    "country":"Belgium",
                                    "business_type": "Chemicals Distribution",
                                    "nature_of_business":"Materials",
                                    "bst:description": "Prayon Benelux SA distributes industrial chemical products. The Company offers natural and synthetic waxes, biocide, surfactants, paint and rubber additives, foamers, emulsions, silicone oils, coloring agents, vaseline, zinc oxide, talc, and silicates. Prayon Benelux serves food and pharmaceutical industries worldwide.",
                                    "@source-id": "bloomberg.com",
                                    "hasLatestOrganizationFoundedDate": "1939",
                                    "tr-org:hasHeadquartersPhoneNumber": "3238601828",
                                    "tr-org:hasHeadquartersFaxNumber": "3238601829",
                                    "hasURL": "http://www.prayonbenelux.be/",
                                    "mdaas:RegisteredAddress": [{
                                        "country": "Belgium",
                                        "fullAddress": "Gansbroekstraat, 31 A, 2870 Ruisbroek"
                                    }],
                                    "hasActivityStatus": "active",
                                    "isDomiciledIn": "BE",
                                    "CountryOperations": {
                                        "Country": "BE"
                                    }
                                }
                            }
                        ],
                        "kompass.com": [
                            {
                                "@identifier": "null",
                                "overview": {
                                    "@is-manual": false,
                                    "vcard:organization-name": "Prayon Benelux NV",
                                    "@source-id": "kompass.com",
                                    "hasLatestOrganizationFoundedDate": "1967",
                                    "tr-org:hasHeadquartersPhoneNumber": "3238601828",
                                    "tr-org:hasHeadquartersFaxNumber": "3238601829",
                                    "hasURL": "http://www.prayonbenelux.be/",
                                    "mdaas:RegisteredAddress": {
                                        "country": "Belgium",
                                        "fullAddress": "Gansbroekstraat, 31 A, 2870 Puurs Belgium"
                                    },
                                    "hasActivityStatus": "active",
                                    "isDomiciledIn": "BE",
                                    "CountryOperations":  [{
                                            "Country": "BE"
                                        }, {
                                            "Country": "BR"
                                        },
                                        {
                                            "Country": "CH"
                                        },
                                        {
                                            "Country": "DE"
                                        },
                                        {
                                            "Country": "GB"
                                        },
                                        {
                                            "Country": "US"
                                        },
                                        {
                                            "Country": "NL"
                                        },
                                        {
                                            "Country": "NL"
                                        }]
                                }
                            }
                        ],
                        "openthebox.be": [
                            {
                                "@identifier": "null",
                                "overview": {
                                    "@is-manual": false,
                                    "vcard:organization-name": "Prayon Benelux NV",
                                    "@source-id": "openthebox.be",
                                    "hasLatestOrganizationFoundedDate": "1968-01-01",
                                    "tr-org:hasHeadquartersPhoneNumber": "3238601828",
                                    "tr-org:hasHeadquartersFaxNumber": "3238601829",
                                    "hasURL": "http://www.prayonbenelux.be/",
                                    "mdaas:RegisteredAddress": [{
                                        "country": "Belgium",
                                        "fullAddress": "Gansbroekstraat, 31 A, 2870 Puurs Belgium"
                                    }],
                                    "hasActivityStatus": "active",
                                    "isDomiciledIn": "BE",
                                    "CountryOperations": {
                                        "Country": "BE"
                                    }
                                }
                            }
                        ],
                        "prayonbenelux.be": [
                            {
                                "@identifier": "null",
                                "overview": {
                                    "@is-manual": false,
                                    "vcard:organization-name": "Prayon Benelux NV",
                                    "revenue":"$10.86",
                                    "@source-id": "openthebox.be",
                                    "hasLatestOrganizationFoundedDate": "1968-01-01",
                                    "tr-org:hasHeadquartersPhoneNumber": "3238601828",
                                    "tr-org:hasHeadquartersFaxNumber": "3238601829",
                                    "bst:description": "Prayon Benelux traces its origins back to 1939, when Franck & Steenman was founded as a trading company specialising in waxes, paint additives and, later, zinc. With an eye to the zinc business (LME London), Prayon Benelux took over the company through its Budel NL activities. In April 1980, it changed the name of its zinc business to Zinchem Benelux (mirroring Zinchem Deutschland). From then on, Prayon sold its acids and phosphates on the Benelux market under the name Zinchem BNLX. Prayon Benelux NV was created in January 2002, when all the commercial subsidiaries incorporated Prayon into their names as part of the corporate strategy.",
                                    "hasURL": "http://www.prayonbenelux.be/",
                                    "mdaas:RegisteredAddress": [{
                                        "country": "Belgium",
                                        "fullAddress": "Gansbroekstraat, 31 A, 2870 Puurs Belgium"
                                    }],
                                    "hasActivityStatus": "active",
                                    "isDomiciledIn": "BE",
                                    "CountryOperations": {
                                        "Country": "BE"
                                    }
                                }
                            }
                        ],
                        "comapnyInfo": {
                            "isDomiciledIn": {
                                "primarySource": [],
                                "conflicts": [],
                                "source": "BST",
                                "secondarySource": ["BST", "permid.org", "coptis.com", "bloomberg.com", "kompass.com", "openthebox.be", "prayonbenelux.be"],
                                "value": "BE"
                            },
                            "vcard:organization-name": {
                                "primarySource": [],
                                "conflicts": [{
                                    "source1": "BST",
                                    "source2": "permid.org",
                                    "value1": "Prayon Benelux",
                                    "value2": "Prayon Benelux NV"
                                }, {
                                    "source1": "BST",
                                    "source2": "coptis.com",
                                    "value1": "Prayon Benelux",
                                    "value2": "Prayon Benelux NV"
                                }, {
                                    "source1": "BST",
                                    "source2": "bloomberg.com",
                                    "value1": "Prayon Benelux",
                                    "value2": "Prayon Benelux NV"
                                }, {
                                    "source1": "BST",
                                    "source2": "kompass.com",
                                    "value1": "Prayon Benelux",
                                    "value2": "Prayon Benelux NV"
                                }, {
                                    "source1": "BST",
                                    "source2": "openthebox.be",
                                    "value1": "Prayon Benelux",
                                    "value2": "Prayon Benelux NV"
                                }, {
                                    "source1": "BST",
                                    "source2": "prayonbenelux.be",
                                    "value1": "Prayon Benelux",
                                    "value2": "Prayon Benelux NV"
                                }],
                                "source": "BST",
                                "secondarySource": ["BST", "permid.org", "coptis.com", "bloomberg.com", "kompass.com", "openthebox.be", "prayonbenelux.be"],
                                "value": "Prayon Benelux"
                            },
                            "industry": {
                                "primarySource": [],
                                "conflicts": [],
                                "source": "BST",
                                "secondarySource": ["BST"],
                                "value": "Chemicals"
                            },
                            "hasURL": {
                                "primarySource": [],
                                "conflicts": [{
                                    "source1": "BST",
                                    "source2": "permid.org",
                                    "value1": "www.prayon.com",
                                    "value2": "http://www.prayonbenelux.be/"
                                }, {
                                    "source1": "BST",
                                    "source2": "coptis.com",
                                    "value1": "www.prayon.com",
                                    "value2": "http://www.prayonbenelux.be/"
                                }, {
                                    "source1": "BST",
                                    "source2": "bloomberg.com",
                                    "value1": "www.prayon.com",
                                    "value2": "http://www.prayonbenelux.be/"
                                }, {
                                    "source1": "BST",
                                    "source2": "kompass.com",
                                    "value1": "www.prayon.com",
                                    "value2": "http://www.prayonbenelux.be/"
                                }, {
                                    "source1": "BST",
                                    "source2": "openthebox.be",
                                    "value1": "www.prayon.com",
                                    "value2": "http://www.prayonbenelux.be/"
                                }, {
                                    "source1": "BST",
                                    "source2": "prayonbenelux.be",
                                    "value1": "www.prayon.com",
                                    "value2": "http://www.prayonbenelux.be/"
                                }],
                                "source": "BST",
                                "secondarySource": ["BST", "permid.org", "coptis.com", "bloomberg.com", "kompass.com", "openthebox.be", "prayonbenelux.be"],
                                "value": "www.prayon.com"
                            },
                            "business_type": {
                                "primarySource": [],
                                "conflicts": [],
                                "source": "BST",
                                "secondarySource": ["BST", "bloomberg.com"],
                                "value": "Chemicals Distribution"
                            },
                            "nature_of_business": {
                                "primarySource": [],
                                "conflicts": [{
                                    "source1": "BST",
                                    "source2": "bloomberg.com",
                                    "value1": "Supplier",
                                    "value2": "Materials"
                                }],
                                "source": "BST",
                                "secondarySource": ["BST", "bloomberg.com"],
                                "value": "Supplier"
                            },
                            "bizType": {
                                "primarySource": [],
                                "conflicts": [],
                                "source": "BST",
                                "secondarySource": ["BST"],
                                "value": "Materials"
                            },
                            "tr-org:hasHeadquartersPhoneNumber": {
                                "primarySource": [],
                                "conflicts": [],
                                "source": "BST",
                                "secondarySource": ["BST", "permid.org", "coptis.com", "bloomberg.com", "kompass.com", "openthebox.be", "prayonbenelux.be"],
                                "value": "3238601828"
                            },
                            "tr-org:hasHeadquartersFaxNumber": {
                                "primarySource": [],
                                "conflicts": [],
                                "source": "BST",
                                "secondarySource": ["BST", "permid.org", "coptis.com", "bloomberg.com", "kompass.com", "openthebox.be", "prayonbenelux.be"],
                                "value": "3238601829"
                            },
                            "revenue": {
                                "primarySource": [],
                                "conflicts": [],
                                "source": "BST",
                                "secondarySource": ["BST", "prayonbenelux.be"],
                                "value": "$10.86"
                            },
                            "email": {
                                "primarySource": [],
                                "conflicts": [],
                                "source": "BST",
                                "secondarySource": ["BST"],
                                "value": "prt@prayon.com"
                            },
                            "country": {
                                "primarySource": [],
                                "conflicts": [],
                                "source": "BST",
                                "secondarySource": ["BST", "permid.org", "permid.org", "coptis.com", "bloomberg.com", "bloomberg.com", "openthebox.be", "prayonbenelux.be"],
                                "value": "Belgium"
                            },
                            "zip": {
                                "primarySource": [],
                                "conflicts": [],
                                "source": "BST",
                                "secondarySource": ["BST"],
                                "value": "2870"
                            },
                            "fullAddress": {
                                "primarySource": [],
                                "conflicts": [{
                                    "source1": "BST",
                                    "source2": "permid.org",
                                    "value1": "Gansbroekstraat 31 b.A Ruisbroek (Antw.) Belgium 2870",
                                    "value2": "Gansbroekstraat 31A\nPUURS\nANTWERPEN\n2870\nBelgium\n"
                                }, {
                                    "source1": "BST",
                                    "source2": "coptis.com",
                                    "value1": "Gansbroekstraat 31 b.A Ruisbroek (Antw.) Belgium 2870",
                                    "value2": "Gansbroekstraat, 31 A, 2870 Ruisbroek"
                                }, {
                                    "source1": "BST",
                                    "source2": "bloomberg.com",
                                    "value1": "Gansbroekstraat 31 b.A Ruisbroek (Antw.) Belgium 2870",
                                    "value2": "Gansbroekstraat, 31 A, 2870 Ruisbroek"
                                }, {
                                    "source1": "BST",
                                    "source2": "openthebox.be",
                                    "value1": "Gansbroekstraat 31 b.A Ruisbroek (Antw.) Belgium 2870",
                                    "value2": "Gansbroekstraat, 31 A, 2870 Puurs Belgium"
                                }, {
                                    "source1": "BST",
                                    "source2": "prayonbenelux.be",
                                    "value1": "Gansbroekstraat 31 b.A Ruisbroek (Antw.) Belgium 2870",
                                    "value2": "Gansbroekstraat, 31 A, 2870 Puurs Belgium"
                                }],
                                "source": "BST",
                                "secondarySource": ["BST", "permid.org", "coptis.com", "bloomberg.com", "openthebox.be", "prayonbenelux.be"],
                                "value": "Gansbroekstraat 31 b.A Ruisbroek (Antw.) Belgium 2870"
                            },
                            "lei:legalForm": {
                                "primarySource": [],
                                "conflicts": [],
                                "source": "BST",
                                "secondarySource": ["BST", "coptis.com"],
                                "value": "Public limited companies"
                            },
                            "hasLatestOrganizationFoundedDate": {
                                "primarySource": [],
                                "conflicts": [{
                                    "source1": "BST",
                                    "source2": "coptis.com",
                                    "value1": "1939-07-01",
                                    "value2": "1939"
                                }, {
                                    "source1": "BST",
                                    "source2": "bloomberg.com",
                                    "value1": "1939-07-01",
                                    "value2": "1939"
                                }, {
                                    "source1": "BST",
                                    "source2": "kompass.com",
                                    "value1": "1939-07-01",
                                    "value2": "1967"
                                }, {
                                    "source1": "BST",
                                    "source2": "openthebox.be",
                                    "value1": "1939-07-01",
                                    "value2": "1968-01-01"
                                }, {
                                    "source1": "BST",
                                    "source2": "prayonbenelux.be",
                                    "value1": "1939-07-01",
                                    "value2": "1968-01-01"
                                }],
                                "source": "BST",
                                "secondarySource": ["BST", "coptis.com", "bloomberg.com", "kompass.com", "openthebox.be", "prayonbenelux.be"],
                                "value": "1939-07-01"
                            },
                            "hasActivityStatus": {
                                "primarySource": [],
                                "conflicts": [],
                                "source": "BST",
                                "secondarySource": ["BST", "coptis.com", "bloomberg.com", "kompass.com", "openthebox.be", "prayonbenelux.be"],
                                "value": "active"
                            },
                            "size": {
                                "primarySource": [],
                                "conflicts": [],
                                "source": "BST",
                                "secondarySource": ["BST"],
                                "value": "L"
                            },
                            "bst:description": {
                                "primarySource": [],
                                "conflicts": [{
                                    "source1": "BST",
                                    "source2": "permid.org",
                                    "value1": "This company operates as a worldwide leader in phospate creativity. It was incorporated in 1939 and has its registered office in Ruisbroek (Antw.), Belgium. The company has expertise in Phosphoric acid production, Phosphoric acid concentration, Fluorine recovery, Purification of gypsum, gas scrubbing, and Purification of phosphoric acid. It aims to be a leading player in niche markets such as food additives, horticulture and industrial applications, offering a high level of added value. It also want to further consolidate its position as the world leader in phosphoric acid technology. It also aims to be innovative an international chemical company that uses sustainable technologies to provide quality products and first-class associated services in direct response to market needs.",
                                    "value2": "entity type:Organization, is public:false, "
                                }, {
                                    "source1": "BST",
                                    "source2": "coptis.com",
                                    "value1": "This company operates as a worldwide leader in phospate creativity. It was incorporated in 1939 and has its registered office in Ruisbroek (Antw.), Belgium. The company has expertise in Phosphoric acid production, Phosphoric acid concentration, Fluorine recovery, Purification of gypsum, gas scrubbing, and Purification of phosphoric acid. It aims to be a leading player in niche markets such as food additives, horticulture and industrial applications, offering a high level of added value. It also want to further consolidate its position as the world leader in phosphoric acid technology. It also aims to be innovative an international chemical company that uses sustainable technologies to provide quality products and first-class associated services in direct response to market needs.",
                                    "value2": "As a wholly owned subsidiary of Prayon SA (headquartered in Engis, Belgium) Prayon Benelux NV is responsible for the sales of all Prayon products on the Benelux market. Prayon is a world leader in the production of phosphoric acid and phosphates"
                                }, {
                                    "source1": "BST",
                                    "source2": "bloomberg.com",
                                    "value1": "This company operates as a worldwide leader in phospate creativity. It was incorporated in 1939 and has its registered office in Ruisbroek (Antw.), Belgium. The company has expertise in Phosphoric acid production, Phosphoric acid concentration, Fluorine recovery, Purification of gypsum, gas scrubbing, and Purification of phosphoric acid. It aims to be a leading player in niche markets such as food additives, horticulture and industrial applications, offering a high level of added value. It also want to further consolidate its position as the world leader in phosphoric acid technology. It also aims to be innovative an international chemical company that uses sustainable technologies to provide quality products and first-class associated services in direct response to market needs.",
                                    "value2": "Prayon Benelux SA distributes industrial chemical products. The Company offers natural and synthetic waxes, biocide, surfactants, paint and rubber additives, foamers, emulsions, silicone oils, coloring agents, vaseline, zinc oxide, talc, and silicates. Prayon Benelux serves food and pharmaceutical industries worldwide."
                                }, {
                                    "source1": "BST",
                                    "source2": "prayonbenelux.be",
                                    "value1": "This company operates as a worldwide leader in phospate creativity. It was incorporated in 1939 and has its registered office in Ruisbroek (Antw.), Belgium. The company has expertise in Phosphoric acid production, Phosphoric acid concentration, Fluorine recovery, Purification of gypsum, gas scrubbing, and Purification of phosphoric acid. It aims to be a leading player in niche markets such as food additives, horticulture and industrial applications, offering a high level of added value. It also want to further consolidate its position as the world leader in phosphoric acid technology. It also aims to be innovative an international chemical company that uses sustainable technologies to provide quality products and first-class associated services in direct response to market needs.",
                                    "value2": "Prayon Benelux traces its origins back to 1939, when Franck & Steenman was founded as a trading company specialising in waxes, paint additives and, later, zinc. With an eye to the zinc business (LME London), Prayon Benelux took over the company through its Budel NL activities. In April 1980, it changed the name of its zinc business to Zinchem Benelux (mirroring Zinchem Deutschland). From then on, Prayon sold its acids and phosphates on the Benelux market under the name Zinchem BNLX. Prayon Benelux NV was created in January 2002, when all the commercial subsidiaries incorporated Prayon into their names as part of the corporate strategy."
                                }],
                                "source": "BST",
                                "secondarySource": ["BST", "permid.org", "coptis.com", "bloomberg.com", "prayonbenelux.be"],
                                "value": "This company operates as a worldwide leader in phospate creativity. It was incorporated in 1939 and has its registered office in Ruisbroek (Antw.), Belgium. The company has expertise in Phosphoric acid production, Phosphoric acid concentration, Fluorine recovery, Purification of gypsum, gas scrubbing, and Purification of phosphoric acid. It aims to be a leading player in niche markets such as food additives, horticulture and industrial applications, offering a high level of added value. It also want to further consolidate its position as the world leader in phosphoric acid technology. It also aims to be innovative an international chemical company that uses sustainable technologies to provide quality products and first-class associated services in direct response to market needs."
                            },
                            "isIncorporatedIn": {
                                "primarySource": [],
                                "conflicts": [],
                                "source": "permid.org",
                                "secondarySource": ["permid.org"],
                                "value": "1968-01-01"
                            },
                            "tr-org:hasRegisteredPhoneNumber": {
                                "primarySource": [],
                                "conflicts": [],
                                "source": "permid.org",
                                "secondarySource": ["permid.org"],
                                "value": "3238601828"
                            },
                            "bst:registryURI": {
                                "primarySource": [],
                                "conflicts": [],
                                "source": "permid.org",
                                "secondarySource": ["permid.org"],
                                "value": "https://permid.org/1-5045167773"
                            },
                            "hasRegisteredFaxNumber": {
                                "primarySource": [],
                                "conflicts": [],
                                "source": "permid.org",
                                "secondarySource": ["permid.org"],
                                "value": "3238601829"
                            },
                            "@source-id": {
                                "primarySource": [],
                                "conflicts": [{
                                    "source1": "permid.org",
                                    "source2": "coptis.com",
                                    "value1": "permid.org",
                                    "value2": "coptis.com"
                                }, {
                                    "source1": "permid.org",
                                    "source2": "bloomberg.com",
                                    "value1": "permid.org",
                                    "value2": "bloomberg.com"
                                }, {
                                    "source1": "permid.org",
                                    "source2": "kompass.com",
                                    "value1": "permid.org",
                                    "value2": "kompass.com"
                                }, {
                                    "source1": "permid.org",
                                    "source2": "openthebox.be",
                                    "value1": "permid.org",
                                    "value2": "openthebox.be"
                                }, {
                                    "source1": "permid.org",
                                    "source2": "prayonbenelux.be",
                                    "value1": "permid.org",
                                    "value2": "openthebox.be"
                                }],
                                "source": "permid.org",
                                "secondarySource": ["permid.org", "coptis.com", "bloomberg.com", "kompass.com", "openthebox.be", "prayonbenelux.be"],
                                "value": "permid.org"
                            },
                            "tr-org:hasLEI": {
                                "primarySource": [],
                                "conflicts": [],
                                "source": "permid.org",
                                "secondarySource": ["permid.org"],
                                "value": "549300I7DZ2O8HCXYK97"
                            },
                            "Industry": {
                                "primarySource": [],
                                "conflicts": [],
                                "source": "bloomberg.com",
                                "secondarySource": ["bloomberg.com"],
                                "value": "Chemicals"
                            }
                        }
                    }
                }
            }
        ],
        "statuses": []
    },     
    "status": true,
    "message": "",
    "code": 200,
    "developerMsg": ""
}