{
    "data": {
        "results": [
            {
                "identifier": "54930012qjwzmyhnjw95",
                "result": {
                    "data": {
                        "http://www.annualreports.com/HostedData/AnnualReports/PDF/NYSE_pvh_2017.pdf": [
                            {
                                "documents": [
                                    {
                                        "date": "2018",
                                        "description": "Source Of Wealth -Annual Report 2017",
                                        "url": "http://www.annualreports.com/HostedData/AnnualReports/PDF/NYSE_pvh_2017.pdf"
                                    }
                                ]
                            }
                        ]
                    }
                   
                }
            }
        ],
        "statuses": []
    },
    "status": true,
    "message": "",
    "code": 200,
    "developerMsg": ""
}