{
	"data": {
		"results": [{
			"identifier": "5493007kcyw14yc7bi65",
			"result": {
				"data": {
					"http://www.traction.se/en": [{
						"documents": [
                            {
								"date": "2017-04-23",
								"description": "Source of Wealth - Annual-Report-2017",
								"url": "http://www.traction.se/wp-content/uploads/2014/01/2017-Annual-Report.pdf"
							}
						]
					}]
				},
				"_links": {
					"overview": "https://yfj7qafao0.execute-api.eu-west-1.amazonaws.com/Stage/organizations/5493007kcyw14yc7bi65?fields=overview",
					"graph:subsidiaries": "https://yfj7qafao0.execute-api.eu-west-1.amazonaws.com/Stage/organizations/5493007kcyw14yc7bi65/graph?fields=graph:subsidiaries",
					"shareholders": "https://yfj7qafao0.execute-api.eu-west-1.amazonaws.com/Stage/organizations/5493007kcyw14yc7bi65?fields=shareholders",
					"graph:shareholders": "https://yfj7qafao0.execute-api.eu-west-1.amazonaws.com/Stage/organizations/5493007kcyw14yc7bi65/graph?fields=graph:shareholders",
					"officership": "https://yfj7qafao0.execute-api.eu-west-1.amazonaws.com/Stage/organizations/5493007kcyw14yc7bi65?fields=officership",
					"owners": "https://yfj7qafao0.execute-api.eu-west-1.amazonaws.com/Stage/organizations/5493007kcyw14yc7bi65?fields=owners",
					"subsidiaries": "https://yfj7qafao0.execute-api.eu-west-1.amazonaws.com/Stage/organizations/5493007kcyw14yc7bi65?fields=subsidiaries",
					"branches": "https://yfj7qafao0.execute-api.eu-west-1.amazonaws.com/Stage/organizations/5493007kcyw14yc7bi65?fields=branches"
				}
			}
		}],
		"statuses": []
	},
	"status": true,
	"message": "",
	"code": 200,
	"developerMsg": ""
}